[
  {
    "text": "Robin", "deleteAmount": 2, "length": 3.1
  },
  {
    "text": "Blue Tit", "deleteAmount": 4, "length": 4.0
  },
  {
    "text": "Blackbird", "deleteAmount": 7, "length": 2.4
  },
  {
    "text": "Crow", "deleteAmount": 1, "length": 2.5
  },
  {
    "text": "Dove", "deleteAmount": 1, "length": 2.5
  },
  {
    "text": "Sparrow", "deleteAmount": 5, "length": 1.8
  },
  {
    "text": "Goose", "deleteAmount": 0, "length": 4.9
  },
  {
    "text": "Ostrich", "deleteAmount": 2, "length": 5.2
  },
  {
    "text": "Pigeon", "deleteAmount": 5, "length": 0.7
  },
  {
    "text": "Turkey", "deleteAmount": 6, "length": 0.1
  },
  {
    "text": "Hawk", "deleteAmount": 2, "length": 1.5
  },
  {
    "text": "Bald eagle", "deleteAmount": 0, "length": 10.0
  },
  {
    "text": "Raven", "deleteAmount": 4, "length": 1.0
  },
  {
    "text": "Parrot", "deleteAmount": 3, "length": 2.6
  },
  {
    "text": "Flamingo", "deleteAmount": 5, "length": 3.0
  },
  {
    "text": "Seagull", "deleteAmount": 1, "length": 5.6
  },
  {
    "text": "Swallow", "deleteAmount": 4, "length": 3.3
  },
  {
    "text": "Penguin", "deleteAmount": 0, "length": 6.6
  },
  {
    "text": "Swan", "deleteAmount": 4, "length": 0.0
  },
  {
    "text": "Owl", "deleteAmount": 2, "length": 0.8
  },
  {
    "text": "Stork", "deleteAmount": 3, "length": 2.1
  },
  {
    "text": "Woodpecker", "deleteAmount": 2, "length": 8.0
  },
  {
    "text": "Duck", "deleteAmount": 2, "length": 2.24
  },
  {
    "text": "Osprey", "deleteAmount": 4, "length": 2.22
  },
  {
    "text": "Snipe", "deleteAmount": 0, "length": 5
  }
]