                                    text | deleteAmount |     length |
------------------------------------------------------------------
               RobinBlueTitBlackbirdCrow |           14 |  12.000000 | 
                 DoveSparrowGooseOstrich |            8 |  14.400000 | 
               PigeonTurkeyHawkBaldeagle |           13 |  12.300000 | 
              RavenParrotFlamingoSeagull |           13 |  12.200000 | 
                      SwallowPenguinSwan |            8 |   9.900000 | 
                      OwlStorkWoodpecker |            7 |  10.900000 | 
                         DuckOspreySnipe |            6 |   9.460000 | 
